
[
  {
    "id": 1,
    "type": 1,
    "question": "Cliquez sur la meilleure réponse.",
    "options": [
      {
        "id": 1,
        "item": "My name is Robert"
      },
      {
        "id": 2,
        "item": "I am Spanish"
      },
      {
        "id": 3,
        "item": "I'm fine, thank you"
      },
      {
        "id": 4,
        "item": "Bye!"
      },
      {
        "id": 5,
        "item": "None of the above"
      }
    ],
    "answer": 1
  },
  {
    "id": 2,
    "type": 1,
    "question": "Cliquez sur la meilleure réponse.",
    "options": [
      {
        "id": 1,
        "item": "This is Mr.Baxter; he lives in Ottawa"
      },
      {
        "id": 2,
        "item": "Not bad!"
      },
      {
        "id": 3,
        "item": "I'm from Toronto"
      },
      {
        "id": 4,
        "item": "I'm very pleased to meet you!"
      },
      {
        "id": 5,
        "item": "None of the above"
      }
    ],
    "answer": 1
  },
  {
    "id": 3,
    "type": 1,
    "question": "Cliquez sur la meilleure réponse.",
    "options": [
      {
        "id": 1,
        "item": "Of course! He's married"
      },
      {
        "id": 2,
        "item": "No, he's deceased"
      },
      {
        "id": 3,
        "item": "Certainly! Why?"
      },
      {
        "id": 4,
        "item": "Sure! He has a wife."
      },
      {
        "id": 5,
        "item": "None of the above"
      }
    ],
    "answer": 1
  },
  {
    "id": 4,
    "type": 1,
    "question": "Cliquez sur la meilleure réponse.",
    "options": [
      {
        "id": 1,
        "item": "He's a doctor, and works at 72 MacDonald Street"
      },
      {
        "id": 2,
        "item": "No, he's very young"
      },
      {
        "id": 3,
        "item": "He is in his seventies"
      },
      {
        "id": 4,
        "item": "His elderly father comes from England"
      },
      {
        "id": 5,
        "item": "None of the above"
      }
    ],
    "answer": 1
  },
  {
    "id": 5,
    "type": 1,
    "question": "Cliquez sur la meilleure réponse.",
    "options": [
      {
        "id": 1,
        "item": "Yes, he's their mother's brother"
      },
      {
        "id": 2,
        "item": "No, he's their nephew"
      },
      {
        "id": 3,
        "item": "Yes, she's their aunt"
      },
      {
        "id": 4,
        "item": "No, she's her sister"
      },
      {
        "id": 5,
        "item": "None of the above"
      }
    ],
    "answer": 1
  },
  {
    "id": 6,
    "type": 1,
    "question": " Does Laura have a new teacher? Yes, ___, but she ___ him.",
    "options": [
      {
        "id": 1,
        "item": "she has.. dont't like"
      },
      {
        "id": 2,
        "item": "she doesn't...likes"
      },
      {
        "id": 3,
        "item": "she isn't...doesn't she like"
      },
      {
        "id": 4,
        "item": "she does... doesn't like"
      },
      {
        "id": 5,
        "item": "None of the above"
      }
    ],
    "answer": 1
  },
  {
    "id": 7,
    "type": 1,
    "question": "  ___ item is chic and expensive, but ___ is not.",
    "options": [
      {
        "id": 1,
        "item": "Thes...that"
      },
      {
        "id": 2,
        "item": "That...those ones"
      },
      {
        "id": 3,
        "item": "These ones...this"
      },
      {
        "id": 4,
        "item": "This...that one"
      },
      {
        "id": 5,
        "item": "None of the above"
      }
    ],
    "answer": 1
  },
  {
    "id": 8,
    "type": 1,
    "question": "They celebrate their birthdays ___ New Year’s Eve or ___ early January.",
    "options": [
      {
        "id": 1,
        "item": "in ...since"
      },
      {
        "id": 2,
        "item": "since... at"
      },
      {
        "id": 3,
        "item": "at... on"
      },
      {
        "id": 4,
        "item": "on... in"
      },
      {
        "id": 5,
        "item": "None of the above"
      }
    ],
    "answer": 1
  },
  {
    "id": 9,
    "type": 1,
    "question": "Is Ted ___ the bus to the office today? I don’t know, but he goes by car ___ Thursday.",
    "options": [
      {
        "id": 1,
        "item": "going...any"
      },
      {
        "id": 2,
        "item": "takes...on"
      },
      {
        "id": 3,
        "item": "go...some"
      },
      {
        "id": 4,
        "item": "taking...every"
      },
      {
        "id": 5,
        "item": "None of the above"
      }
    ],
    "answer": 1
  },
  {
    "id": 10,
    "type": 1,
    "question": " ___ time does your family make supper? Twenty ___ six.",
    "options": [
      {
        "id": 1,
        "item": "Why...past"
      },
      {
        "id": 2,
        "item": "When...after"
      },
      {
        "id": 3,
        "item": "Where...at"
      },
      {
        "id": 4,
        "item": "What...to"
      },
      {
        "id": 5,
        "item": "None of the above"
      }
    ],
    "answer": 1
  }
]
